Created by PLY version 3.10 (http://www.dabeaz.com/ply)

Grammar

Rule 0     S' -> statement
Rule 1     statement -> NAME EQUALS expression
Rule 2     statement -> expression
Rule 3     expression -> expression PLUS expression
Rule 4     expression -> expression MINUS expression
Rule 5     expression -> expression TIMES expression
Rule 6     expression -> expression DIVIDE expression
Rule 7     expression -> expression EXPONENT expression
Rule 8     expression -> expression FDIVIDE expression
Rule 9     expression -> expression GREATER expression
Rule 10    expression -> expression LESSER expression
Rule 11    expression -> expression EQUIVALENCE expression
Rule 12    expression -> expression NOTEQUAL expression
Rule 13    expression -> expression GREATEREQUAL expression
Rule 14    expression -> expression LESSEREQUAL expression
Rule 15    expression -> NOT expression
Rule 16    expression -> expression AND expression
Rule 17    expression -> expression OR expression
Rule 18    expression -> MINUS expression
Rule 19    expression -> LPAREN expression RPAREN
Rule 20    expression -> NUMBER
Rule 21    expression -> NAME

Terminals, with rules where they appear

AND                  : 16
DIVIDE               : 6
EQUALS               : 1
EQUIVALENCE          : 11
EXPONENT             : 7
FDIVIDE              : 8
GREATER              : 9
GREATEREQUAL         : 13
LESSER               : 10
LESSEREQUAL          : 14
LPAREN               : 19
MINUS                : 4 18
NAME                 : 1 21
NOT                  : 15
NOTEQUAL             : 12
NUMBER               : 20
OR                   : 17
PLUS                 : 3
RPAREN               : 19
TIMES                : 5
error                : 

Nonterminals, with rules where they appear

expression           : 1 2 3 3 4 4 5 5 6 6 7 7 8 8 9 9 10 10 11 11 12 12 13 13 14 14 15 16 16 17 17 18 19
statement            : 0

Parsing method: LALR

state 0

    (0) S' -> . statement
    (1) statement -> . NAME EQUALS expression
    (2) statement -> . expression
    (3) expression -> . expression PLUS expression
    (4) expression -> . expression MINUS expression
    (5) expression -> . expression TIMES expression
    (6) expression -> . expression DIVIDE expression
    (7) expression -> . expression EXPONENT expression
    (8) expression -> . expression FDIVIDE expression
    (9) expression -> . expression GREATER expression
    (10) expression -> . expression LESSER expression
    (11) expression -> . expression EQUIVALENCE expression
    (12) expression -> . expression NOTEQUAL expression
    (13) expression -> . expression GREATEREQUAL expression
    (14) expression -> . expression LESSEREQUAL expression
    (15) expression -> . NOT expression
    (16) expression -> . expression AND expression
    (17) expression -> . expression OR expression
    (18) expression -> . MINUS expression
    (19) expression -> . LPAREN expression RPAREN
    (20) expression -> . NUMBER
    (21) expression -> . NAME

    NAME            shift and go to state 3
    NOT             shift and go to state 2
    MINUS           shift and go to state 1
    LPAREN          shift and go to state 7
    NUMBER          shift and go to state 5

    statement                      shift and go to state 6
    expression                     shift and go to state 4

state 1

    (18) expression -> MINUS . expression
    (3) expression -> . expression PLUS expression
    (4) expression -> . expression MINUS expression
    (5) expression -> . expression TIMES expression
    (6) expression -> . expression DIVIDE expression
    (7) expression -> . expression EXPONENT expression
    (8) expression -> . expression FDIVIDE expression
    (9) expression -> . expression GREATER expression
    (10) expression -> . expression LESSER expression
    (11) expression -> . expression EQUIVALENCE expression
    (12) expression -> . expression NOTEQUAL expression
    (13) expression -> . expression GREATEREQUAL expression
    (14) expression -> . expression LESSEREQUAL expression
    (15) expression -> . NOT expression
    (16) expression -> . expression AND expression
    (17) expression -> . expression OR expression
    (18) expression -> . MINUS expression
    (19) expression -> . LPAREN expression RPAREN
    (20) expression -> . NUMBER
    (21) expression -> . NAME

    NOT             shift and go to state 2
    MINUS           shift and go to state 1
    LPAREN          shift and go to state 7
    NUMBER          shift and go to state 5
    NAME            shift and go to state 8

    expression                     shift and go to state 9

state 2

    (15) expression -> NOT . expression
    (3) expression -> . expression PLUS expression
    (4) expression -> . expression MINUS expression
    (5) expression -> . expression TIMES expression
    (6) expression -> . expression DIVIDE expression
    (7) expression -> . expression EXPONENT expression
    (8) expression -> . expression FDIVIDE expression
    (9) expression -> . expression GREATER expression
    (10) expression -> . expression LESSER expression
    (11) expression -> . expression EQUIVALENCE expression
    (12) expression -> . expression NOTEQUAL expression
    (13) expression -> . expression GREATEREQUAL expression
    (14) expression -> . expression LESSEREQUAL expression
    (15) expression -> . NOT expression
    (16) expression -> . expression AND expression
    (17) expression -> . expression OR expression
    (18) expression -> . MINUS expression
    (19) expression -> . LPAREN expression RPAREN
    (20) expression -> . NUMBER
    (21) expression -> . NAME

    NOT             shift and go to state 2
    MINUS           shift and go to state 1
    LPAREN          shift and go to state 7
    NUMBER          shift and go to state 5
    NAME            shift and go to state 8

    expression                     shift and go to state 10

state 3

    (1) statement -> NAME . EQUALS expression
    (21) expression -> NAME .

    EQUALS          shift and go to state 11
    PLUS            reduce using rule 21 (expression -> NAME .)
    MINUS           reduce using rule 21 (expression -> NAME .)
    TIMES           reduce using rule 21 (expression -> NAME .)
    DIVIDE          reduce using rule 21 (expression -> NAME .)
    EXPONENT        reduce using rule 21 (expression -> NAME .)
    FDIVIDE         reduce using rule 21 (expression -> NAME .)
    GREATER         reduce using rule 21 (expression -> NAME .)
    LESSER          reduce using rule 21 (expression -> NAME .)
    EQUIVALENCE     reduce using rule 21 (expression -> NAME .)
    NOTEQUAL        reduce using rule 21 (expression -> NAME .)
    GREATEREQUAL    reduce using rule 21 (expression -> NAME .)
    LESSEREQUAL     reduce using rule 21 (expression -> NAME .)
    AND             reduce using rule 21 (expression -> NAME .)
    OR              reduce using rule 21 (expression -> NAME .)
    $end            reduce using rule 21 (expression -> NAME .)


state 4

    (2) statement -> expression .
    (3) expression -> expression . PLUS expression
    (4) expression -> expression . MINUS expression
    (5) expression -> expression . TIMES expression
    (6) expression -> expression . DIVIDE expression
    (7) expression -> expression . EXPONENT expression
    (8) expression -> expression . FDIVIDE expression
    (9) expression -> expression . GREATER expression
    (10) expression -> expression . LESSER expression
    (11) expression -> expression . EQUIVALENCE expression
    (12) expression -> expression . NOTEQUAL expression
    (13) expression -> expression . GREATEREQUAL expression
    (14) expression -> expression . LESSEREQUAL expression
    (16) expression -> expression . AND expression
    (17) expression -> expression . OR expression

    $end            reduce using rule 2 (statement -> expression .)
    PLUS            shift and go to state 25
    MINUS           shift and go to state 15
    TIMES           shift and go to state 17
    DIVIDE          shift and go to state 16
    EXPONENT        shift and go to state 23
    FDIVIDE         shift and go to state 13
    GREATER         shift and go to state 12
    LESSER          shift and go to state 19
    EQUIVALENCE     shift and go to state 22
    NOTEQUAL        shift and go to state 20
    GREATEREQUAL    shift and go to state 24
    LESSEREQUAL     shift and go to state 18
    AND             shift and go to state 21
    OR              shift and go to state 14


state 5

    (20) expression -> NUMBER .

    PLUS            reduce using rule 20 (expression -> NUMBER .)
    MINUS           reduce using rule 20 (expression -> NUMBER .)
    TIMES           reduce using rule 20 (expression -> NUMBER .)
    DIVIDE          reduce using rule 20 (expression -> NUMBER .)
    EXPONENT        reduce using rule 20 (expression -> NUMBER .)
    FDIVIDE         reduce using rule 20 (expression -> NUMBER .)
    GREATER         reduce using rule 20 (expression -> NUMBER .)
    LESSER          reduce using rule 20 (expression -> NUMBER .)
    EQUIVALENCE     reduce using rule 20 (expression -> NUMBER .)
    NOTEQUAL        reduce using rule 20 (expression -> NUMBER .)
    GREATEREQUAL    reduce using rule 20 (expression -> NUMBER .)
    LESSEREQUAL     reduce using rule 20 (expression -> NUMBER .)
    AND             reduce using rule 20 (expression -> NUMBER .)
    OR              reduce using rule 20 (expression -> NUMBER .)
    $end            reduce using rule 20 (expression -> NUMBER .)
    RPAREN          reduce using rule 20 (expression -> NUMBER .)


state 6

    (0) S' -> statement .



state 7

    (19) expression -> LPAREN . expression RPAREN
    (3) expression -> . expression PLUS expression
    (4) expression -> . expression MINUS expression
    (5) expression -> . expression TIMES expression
    (6) expression -> . expression DIVIDE expression
    (7) expression -> . expression EXPONENT expression
    (8) expression -> . expression FDIVIDE expression
    (9) expression -> . expression GREATER expression
    (10) expression -> . expression LESSER expression
    (11) expression -> . expression EQUIVALENCE expression
    (12) expression -> . expression NOTEQUAL expression
    (13) expression -> . expression GREATEREQUAL expression
    (14) expression -> . expression LESSEREQUAL expression
    (15) expression -> . NOT expression
    (16) expression -> . expression AND expression
    (17) expression -> . expression OR expression
    (18) expression -> . MINUS expression
    (19) expression -> . LPAREN expression RPAREN
    (20) expression -> . NUMBER
    (21) expression -> . NAME

    NOT             shift and go to state 2
    MINUS           shift and go to state 1
    LPAREN          shift and go to state 7
    NUMBER          shift and go to state 5
    NAME            shift and go to state 8

    expression                     shift and go to state 26

state 8

    (21) expression -> NAME .

    PLUS            reduce using rule 21 (expression -> NAME .)
    MINUS           reduce using rule 21 (expression -> NAME .)
    TIMES           reduce using rule 21 (expression -> NAME .)
    DIVIDE          reduce using rule 21 (expression -> NAME .)
    EXPONENT        reduce using rule 21 (expression -> NAME .)
    FDIVIDE         reduce using rule 21 (expression -> NAME .)
    GREATER         reduce using rule 21 (expression -> NAME .)
    LESSER          reduce using rule 21 (expression -> NAME .)
    EQUIVALENCE     reduce using rule 21 (expression -> NAME .)
    NOTEQUAL        reduce using rule 21 (expression -> NAME .)
    GREATEREQUAL    reduce using rule 21 (expression -> NAME .)
    LESSEREQUAL     reduce using rule 21 (expression -> NAME .)
    AND             reduce using rule 21 (expression -> NAME .)
    OR              reduce using rule 21 (expression -> NAME .)
    $end            reduce using rule 21 (expression -> NAME .)
    RPAREN          reduce using rule 21 (expression -> NAME .)


state 9

    (18) expression -> MINUS expression .
    (3) expression -> expression . PLUS expression
    (4) expression -> expression . MINUS expression
    (5) expression -> expression . TIMES expression
    (6) expression -> expression . DIVIDE expression
    (7) expression -> expression . EXPONENT expression
    (8) expression -> expression . FDIVIDE expression
    (9) expression -> expression . GREATER expression
    (10) expression -> expression . LESSER expression
    (11) expression -> expression . EQUIVALENCE expression
    (12) expression -> expression . NOTEQUAL expression
    (13) expression -> expression . GREATEREQUAL expression
    (14) expression -> expression . LESSEREQUAL expression
    (16) expression -> expression . AND expression
    (17) expression -> expression . OR expression

    PLUS            reduce using rule 18 (expression -> MINUS expression .)
    MINUS           reduce using rule 18 (expression -> MINUS expression .)
    TIMES           reduce using rule 18 (expression -> MINUS expression .)
    DIVIDE          reduce using rule 18 (expression -> MINUS expression .)
    EXPONENT        reduce using rule 18 (expression -> MINUS expression .)
    FDIVIDE         reduce using rule 18 (expression -> MINUS expression .)
    GREATER         reduce using rule 18 (expression -> MINUS expression .)
    LESSER          reduce using rule 18 (expression -> MINUS expression .)
    EQUIVALENCE     reduce using rule 18 (expression -> MINUS expression .)
    NOTEQUAL        reduce using rule 18 (expression -> MINUS expression .)
    GREATEREQUAL    reduce using rule 18 (expression -> MINUS expression .)
    LESSEREQUAL     reduce using rule 18 (expression -> MINUS expression .)
    AND             reduce using rule 18 (expression -> MINUS expression .)
    OR              reduce using rule 18 (expression -> MINUS expression .)
    $end            reduce using rule 18 (expression -> MINUS expression .)
    RPAREN          reduce using rule 18 (expression -> MINUS expression .)

  ! PLUS            [ shift and go to state 25 ]
  ! MINUS           [ shift and go to state 15 ]
  ! TIMES           [ shift and go to state 17 ]
  ! DIVIDE          [ shift and go to state 16 ]
  ! EXPONENT        [ shift and go to state 23 ]
  ! FDIVIDE         [ shift and go to state 13 ]
  ! GREATER         [ shift and go to state 12 ]
  ! LESSER          [ shift and go to state 19 ]
  ! EQUIVALENCE     [ shift and go to state 22 ]
  ! NOTEQUAL        [ shift and go to state 20 ]
  ! GREATEREQUAL    [ shift and go to state 24 ]
  ! LESSEREQUAL     [ shift and go to state 18 ]
  ! AND             [ shift and go to state 21 ]
  ! OR              [ shift and go to state 14 ]


state 10

    (15) expression -> NOT expression .
    (3) expression -> expression . PLUS expression
    (4) expression -> expression . MINUS expression
    (5) expression -> expression . TIMES expression
    (6) expression -> expression . DIVIDE expression
    (7) expression -> expression . EXPONENT expression
    (8) expression -> expression . FDIVIDE expression
    (9) expression -> expression . GREATER expression
    (10) expression -> expression . LESSER expression
    (11) expression -> expression . EQUIVALENCE expression
    (12) expression -> expression . NOTEQUAL expression
    (13) expression -> expression . GREATEREQUAL expression
    (14) expression -> expression . LESSEREQUAL expression
    (16) expression -> expression . AND expression
    (17) expression -> expression . OR expression

    PLUS            reduce using rule 15 (expression -> NOT expression .)
    MINUS           reduce using rule 15 (expression -> NOT expression .)
    TIMES           reduce using rule 15 (expression -> NOT expression .)
    DIVIDE          reduce using rule 15 (expression -> NOT expression .)
    EXPONENT        reduce using rule 15 (expression -> NOT expression .)
    FDIVIDE         reduce using rule 15 (expression -> NOT expression .)
    GREATER         reduce using rule 15 (expression -> NOT expression .)
    LESSER          reduce using rule 15 (expression -> NOT expression .)
    EQUIVALENCE     reduce using rule 15 (expression -> NOT expression .)
    NOTEQUAL        reduce using rule 15 (expression -> NOT expression .)
    GREATEREQUAL    reduce using rule 15 (expression -> NOT expression .)
    LESSEREQUAL     reduce using rule 15 (expression -> NOT expression .)
    AND             reduce using rule 15 (expression -> NOT expression .)
    OR              reduce using rule 15 (expression -> NOT expression .)
    $end            reduce using rule 15 (expression -> NOT expression .)
    RPAREN          reduce using rule 15 (expression -> NOT expression .)

  ! PLUS            [ shift and go to state 25 ]
  ! MINUS           [ shift and go to state 15 ]
  ! TIMES           [ shift and go to state 17 ]
  ! DIVIDE          [ shift and go to state 16 ]
  ! EXPONENT        [ shift and go to state 23 ]
  ! FDIVIDE         [ shift and go to state 13 ]
  ! GREATER         [ shift and go to state 12 ]
  ! LESSER          [ shift and go to state 19 ]
  ! EQUIVALENCE     [ shift and go to state 22 ]
  ! NOTEQUAL        [ shift and go to state 20 ]
  ! GREATEREQUAL    [ shift and go to state 24 ]
  ! LESSEREQUAL     [ shift and go to state 18 ]
  ! AND             [ shift and go to state 21 ]
  ! OR              [ shift and go to state 14 ]


state 11

    (1) statement -> NAME EQUALS . expression
    (3) expression -> . expression PLUS expression
    (4) expression -> . expression MINUS expression
    (5) expression -> . expression TIMES expression
    (6) expression -> . expression DIVIDE expression
    (7) expression -> . expression EXPONENT expression
    (8) expression -> . expression FDIVIDE expression
    (9) expression -> . expression GREATER expression
    (10) expression -> . expression LESSER expression
    (11) expression -> . expression EQUIVALENCE expression
    (12) expression -> . expression NOTEQUAL expression
    (13) expression -> . expression GREATEREQUAL expression
    (14) expression -> . expression LESSEREQUAL expression
    (15) expression -> . NOT expression
    (16) expression -> . expression AND expression
    (17) expression -> . expression OR expression
    (18) expression -> . MINUS expression
    (19) expression -> . LPAREN expression RPAREN
    (20) expression -> . NUMBER
    (21) expression -> . NAME

    NOT             shift and go to state 2
    MINUS           shift and go to state 1
    LPAREN          shift and go to state 7
    NUMBER          shift and go to state 5
    NAME            shift and go to state 8

    expression                     shift and go to state 27

state 12

    (9) expression -> expression GREATER . expression
    (3) expression -> . expression PLUS expression
    (4) expression -> . expression MINUS expression
    (5) expression -> . expression TIMES expression
    (6) expression -> . expression DIVIDE expression
    (7) expression -> . expression EXPONENT expression
    (8) expression -> . expression FDIVIDE expression
    (9) expression -> . expression GREATER expression
    (10) expression -> . expression LESSER expression
    (11) expression -> . expression EQUIVALENCE expression
    (12) expression -> . expression NOTEQUAL expression
    (13) expression -> . expression GREATEREQUAL expression
    (14) expression -> . expression LESSEREQUAL expression
    (15) expression -> . NOT expression
    (16) expression -> . expression AND expression
    (17) expression -> . expression OR expression
    (18) expression -> . MINUS expression
    (19) expression -> . LPAREN expression RPAREN
    (20) expression -> . NUMBER
    (21) expression -> . NAME

    NOT             shift and go to state 2
    MINUS           shift and go to state 1
    LPAREN          shift and go to state 7
    NUMBER          shift and go to state 5
    NAME            shift and go to state 8

    expression                     shift and go to state 28

state 13

    (8) expression -> expression FDIVIDE . expression
    (3) expression -> . expression PLUS expression
    (4) expression -> . expression MINUS expression
    (5) expression -> . expression TIMES expression
    (6) expression -> . expression DIVIDE expression
    (7) expression -> . expression EXPONENT expression
    (8) expression -> . expression FDIVIDE expression
    (9) expression -> . expression GREATER expression
    (10) expression -> . expression LESSER expression
    (11) expression -> . expression EQUIVALENCE expression
    (12) expression -> . expression NOTEQUAL expression
    (13) expression -> . expression GREATEREQUAL expression
    (14) expression -> . expression LESSEREQUAL expression
    (15) expression -> . NOT expression
    (16) expression -> . expression AND expression
    (17) expression -> . expression OR expression
    (18) expression -> . MINUS expression
    (19) expression -> . LPAREN expression RPAREN
    (20) expression -> . NUMBER
    (21) expression -> . NAME

    NOT             shift and go to state 2
    MINUS           shift and go to state 1
    LPAREN          shift and go to state 7
    NUMBER          shift and go to state 5
    NAME            shift and go to state 8

    expression                     shift and go to state 29

state 14

    (17) expression -> expression OR . expression
    (3) expression -> . expression PLUS expression
    (4) expression -> . expression MINUS expression
    (5) expression -> . expression TIMES expression
    (6) expression -> . expression DIVIDE expression
    (7) expression -> . expression EXPONENT expression
    (8) expression -> . expression FDIVIDE expression
    (9) expression -> . expression GREATER expression
    (10) expression -> . expression LESSER expression
    (11) expression -> . expression EQUIVALENCE expression
    (12) expression -> . expression NOTEQUAL expression
    (13) expression -> . expression GREATEREQUAL expression
    (14) expression -> . expression LESSEREQUAL expression
    (15) expression -> . NOT expression
    (16) expression -> . expression AND expression
    (17) expression -> . expression OR expression
    (18) expression -> . MINUS expression
    (19) expression -> . LPAREN expression RPAREN
    (20) expression -> . NUMBER
    (21) expression -> . NAME

    NOT             shift and go to state 2
    MINUS           shift and go to state 1
    LPAREN          shift and go to state 7
    NUMBER          shift and go to state 5
    NAME            shift and go to state 8

    expression                     shift and go to state 30

state 15

    (4) expression -> expression MINUS . expression
    (3) expression -> . expression PLUS expression
    (4) expression -> . expression MINUS expression
    (5) expression -> . expression TIMES expression
    (6) expression -> . expression DIVIDE expression
    (7) expression -> . expression EXPONENT expression
    (8) expression -> . expression FDIVIDE expression
    (9) expression -> . expression GREATER expression
    (10) expression -> . expression LESSER expression
    (11) expression -> . expression EQUIVALENCE expression
    (12) expression -> . expression NOTEQUAL expression
    (13) expression -> . expression GREATEREQUAL expression
    (14) expression -> . expression LESSEREQUAL expression
    (15) expression -> . NOT expression
    (16) expression -> . expression AND expression
    (17) expression -> . expression OR expression
    (18) expression -> . MINUS expression
    (19) expression -> . LPAREN expression RPAREN
    (20) expression -> . NUMBER
    (21) expression -> . NAME

    NOT             shift and go to state 2
    MINUS           shift and go to state 1
    LPAREN          shift and go to state 7
    NUMBER          shift and go to state 5
    NAME            shift and go to state 8

    expression                     shift and go to state 31

state 16

    (6) expression -> expression DIVIDE . expression
    (3) expression -> . expression PLUS expression
    (4) expression -> . expression MINUS expression
    (5) expression -> . expression TIMES expression
    (6) expression -> . expression DIVIDE expression
    (7) expression -> . expression EXPONENT expression
    (8) expression -> . expression FDIVIDE expression
    (9) expression -> . expression GREATER expression
    (10) expression -> . expression LESSER expression
    (11) expression -> . expression EQUIVALENCE expression
    (12) expression -> . expression NOTEQUAL expression
    (13) expression -> . expression GREATEREQUAL expression
    (14) expression -> . expression LESSEREQUAL expression
    (15) expression -> . NOT expression
    (16) expression -> . expression AND expression
    (17) expression -> . expression OR expression
    (18) expression -> . MINUS expression
    (19) expression -> . LPAREN expression RPAREN
    (20) expression -> . NUMBER
    (21) expression -> . NAME

    NOT             shift and go to state 2
    MINUS           shift and go to state 1
    LPAREN          shift and go to state 7
    NUMBER          shift and go to state 5
    NAME            shift and go to state 8

    expression                     shift and go to state 32

state 17

    (5) expression -> expression TIMES . expression
    (3) expression -> . expression PLUS expression
    (4) expression -> . expression MINUS expression
    (5) expression -> . expression TIMES expression
    (6) expression -> . expression DIVIDE expression
    (7) expression -> . expression EXPONENT expression
    (8) expression -> . expression FDIVIDE expression
    (9) expression -> . expression GREATER expression
    (10) expression -> . expression LESSER expression
    (11) expression -> . expression EQUIVALENCE expression
    (12) expression -> . expression NOTEQUAL expression
    (13) expression -> . expression GREATEREQUAL expression
    (14) expression -> . expression LESSEREQUAL expression
    (15) expression -> . NOT expression
    (16) expression -> . expression AND expression
    (17) expression -> . expression OR expression
    (18) expression -> . MINUS expression
    (19) expression -> . LPAREN expression RPAREN
    (20) expression -> . NUMBER
    (21) expression -> . NAME

    NOT             shift and go to state 2
    MINUS           shift and go to state 1
    LPAREN          shift and go to state 7
    NUMBER          shift and go to state 5
    NAME            shift and go to state 8

    expression                     shift and go to state 33

state 18

    (14) expression -> expression LESSEREQUAL . expression
    (3) expression -> . expression PLUS expression
    (4) expression -> . expression MINUS expression
    (5) expression -> . expression TIMES expression
    (6) expression -> . expression DIVIDE expression
    (7) expression -> . expression EXPONENT expression
    (8) expression -> . expression FDIVIDE expression
    (9) expression -> . expression GREATER expression
    (10) expression -> . expression LESSER expression
    (11) expression -> . expression EQUIVALENCE expression
    (12) expression -> . expression NOTEQUAL expression
    (13) expression -> . expression GREATEREQUAL expression
    (14) expression -> . expression LESSEREQUAL expression
    (15) expression -> . NOT expression
    (16) expression -> . expression AND expression
    (17) expression -> . expression OR expression
    (18) expression -> . MINUS expression
    (19) expression -> . LPAREN expression RPAREN
    (20) expression -> . NUMBER
    (21) expression -> . NAME

    NOT             shift and go to state 2
    MINUS           shift and go to state 1
    LPAREN          shift and go to state 7
    NUMBER          shift and go to state 5
    NAME            shift and go to state 8

    expression                     shift and go to state 34

state 19

    (10) expression -> expression LESSER . expression
    (3) expression -> . expression PLUS expression
    (4) expression -> . expression MINUS expression
    (5) expression -> . expression TIMES expression
    (6) expression -> . expression DIVIDE expression
    (7) expression -> . expression EXPONENT expression
    (8) expression -> . expression FDIVIDE expression
    (9) expression -> . expression GREATER expression
    (10) expression -> . expression LESSER expression
    (11) expression -> . expression EQUIVALENCE expression
    (12) expression -> . expression NOTEQUAL expression
    (13) expression -> . expression GREATEREQUAL expression
    (14) expression -> . expression LESSEREQUAL expression
    (15) expression -> . NOT expression
    (16) expression -> . expression AND expression
    (17) expression -> . expression OR expression
    (18) expression -> . MINUS expression
    (19) expression -> . LPAREN expression RPAREN
    (20) expression -> . NUMBER
    (21) expression -> . NAME

    NOT             shift and go to state 2
    MINUS           shift and go to state 1
    LPAREN          shift and go to state 7
    NUMBER          shift and go to state 5
    NAME            shift and go to state 8

    expression                     shift and go to state 35

state 20

    (12) expression -> expression NOTEQUAL . expression
    (3) expression -> . expression PLUS expression
    (4) expression -> . expression MINUS expression
    (5) expression -> . expression TIMES expression
    (6) expression -> . expression DIVIDE expression
    (7) expression -> . expression EXPONENT expression
    (8) expression -> . expression FDIVIDE expression
    (9) expression -> . expression GREATER expression
    (10) expression -> . expression LESSER expression
    (11) expression -> . expression EQUIVALENCE expression
    (12) expression -> . expression NOTEQUAL expression
    (13) expression -> . expression GREATEREQUAL expression
    (14) expression -> . expression LESSEREQUAL expression
    (15) expression -> . NOT expression
    (16) expression -> . expression AND expression
    (17) expression -> . expression OR expression
    (18) expression -> . MINUS expression
    (19) expression -> . LPAREN expression RPAREN
    (20) expression -> . NUMBER
    (21) expression -> . NAME

    NOT             shift and go to state 2
    MINUS           shift and go to state 1
    LPAREN          shift and go to state 7
    NUMBER          shift and go to state 5
    NAME            shift and go to state 8

    expression                     shift and go to state 36

state 21

    (16) expression -> expression AND . expression
    (3) expression -> . expression PLUS expression
    (4) expression -> . expression MINUS expression
    (5) expression -> . expression TIMES expression
    (6) expression -> . expression DIVIDE expression
    (7) expression -> . expression EXPONENT expression
    (8) expression -> . expression FDIVIDE expression
    (9) expression -> . expression GREATER expression
    (10) expression -> . expression LESSER expression
    (11) expression -> . expression EQUIVALENCE expression
    (12) expression -> . expression NOTEQUAL expression
    (13) expression -> . expression GREATEREQUAL expression
    (14) expression -> . expression LESSEREQUAL expression
    (15) expression -> . NOT expression
    (16) expression -> . expression AND expression
    (17) expression -> . expression OR expression
    (18) expression -> . MINUS expression
    (19) expression -> . LPAREN expression RPAREN
    (20) expression -> . NUMBER
    (21) expression -> . NAME

    NOT             shift and go to state 2
    MINUS           shift and go to state 1
    LPAREN          shift and go to state 7
    NUMBER          shift and go to state 5
    NAME            shift and go to state 8

    expression                     shift and go to state 37

state 22

    (11) expression -> expression EQUIVALENCE . expression
    (3) expression -> . expression PLUS expression
    (4) expression -> . expression MINUS expression
    (5) expression -> . expression TIMES expression
    (6) expression -> . expression DIVIDE expression
    (7) expression -> . expression EXPONENT expression
    (8) expression -> . expression FDIVIDE expression
    (9) expression -> . expression GREATER expression
    (10) expression -> . expression LESSER expression
    (11) expression -> . expression EQUIVALENCE expression
    (12) expression -> . expression NOTEQUAL expression
    (13) expression -> . expression GREATEREQUAL expression
    (14) expression -> . expression LESSEREQUAL expression
    (15) expression -> . NOT expression
    (16) expression -> . expression AND expression
    (17) expression -> . expression OR expression
    (18) expression -> . MINUS expression
    (19) expression -> . LPAREN expression RPAREN
    (20) expression -> . NUMBER
    (21) expression -> . NAME

    NOT             shift and go to state 2
    MINUS           shift and go to state 1
    LPAREN          shift and go to state 7
    NUMBER          shift and go to state 5
    NAME            shift and go to state 8

    expression                     shift and go to state 38

state 23

    (7) expression -> expression EXPONENT . expression
    (3) expression -> . expression PLUS expression
    (4) expression -> . expression MINUS expression
    (5) expression -> . expression TIMES expression
    (6) expression -> . expression DIVIDE expression
    (7) expression -> . expression EXPONENT expression
    (8) expression -> . expression FDIVIDE expression
    (9) expression -> . expression GREATER expression
    (10) expression -> . expression LESSER expression
    (11) expression -> . expression EQUIVALENCE expression
    (12) expression -> . expression NOTEQUAL expression
    (13) expression -> . expression GREATEREQUAL expression
    (14) expression -> . expression LESSEREQUAL expression
    (15) expression -> . NOT expression
    (16) expression -> . expression AND expression
    (17) expression -> . expression OR expression
    (18) expression -> . MINUS expression
    (19) expression -> . LPAREN expression RPAREN
    (20) expression -> . NUMBER
    (21) expression -> . NAME

    NOT             shift and go to state 2
    MINUS           shift and go to state 1
    LPAREN          shift and go to state 7
    NUMBER          shift and go to state 5
    NAME            shift and go to state 8

    expression                     shift and go to state 39

state 24

    (13) expression -> expression GREATEREQUAL . expression
    (3) expression -> . expression PLUS expression
    (4) expression -> . expression MINUS expression
    (5) expression -> . expression TIMES expression
    (6) expression -> . expression DIVIDE expression
    (7) expression -> . expression EXPONENT expression
    (8) expression -> . expression FDIVIDE expression
    (9) expression -> . expression GREATER expression
    (10) expression -> . expression LESSER expression
    (11) expression -> . expression EQUIVALENCE expression
    (12) expression -> . expression NOTEQUAL expression
    (13) expression -> . expression GREATEREQUAL expression
    (14) expression -> . expression LESSEREQUAL expression
    (15) expression -> . NOT expression
    (16) expression -> . expression AND expression
    (17) expression -> . expression OR expression
    (18) expression -> . MINUS expression
    (19) expression -> . LPAREN expression RPAREN
    (20) expression -> . NUMBER
    (21) expression -> . NAME

    NOT             shift and go to state 2
    MINUS           shift and go to state 1
    LPAREN          shift and go to state 7
    NUMBER          shift and go to state 5
    NAME            shift and go to state 8

    expression                     shift and go to state 40

state 25

    (3) expression -> expression PLUS . expression
    (3) expression -> . expression PLUS expression
    (4) expression -> . expression MINUS expression
    (5) expression -> . expression TIMES expression
    (6) expression -> . expression DIVIDE expression
    (7) expression -> . expression EXPONENT expression
    (8) expression -> . expression FDIVIDE expression
    (9) expression -> . expression GREATER expression
    (10) expression -> . expression LESSER expression
    (11) expression -> . expression EQUIVALENCE expression
    (12) expression -> . expression NOTEQUAL expression
    (13) expression -> . expression GREATEREQUAL expression
    (14) expression -> . expression LESSEREQUAL expression
    (15) expression -> . NOT expression
    (16) expression -> . expression AND expression
    (17) expression -> . expression OR expression
    (18) expression -> . MINUS expression
    (19) expression -> . LPAREN expression RPAREN
    (20) expression -> . NUMBER
    (21) expression -> . NAME

    NOT             shift and go to state 2
    MINUS           shift and go to state 1
    LPAREN          shift and go to state 7
    NUMBER          shift and go to state 5
    NAME            shift and go to state 8

    expression                     shift and go to state 41

state 26

    (19) expression -> LPAREN expression . RPAREN
    (3) expression -> expression . PLUS expression
    (4) expression -> expression . MINUS expression
    (5) expression -> expression . TIMES expression
    (6) expression -> expression . DIVIDE expression
    (7) expression -> expression . EXPONENT expression
    (8) expression -> expression . FDIVIDE expression
    (9) expression -> expression . GREATER expression
    (10) expression -> expression . LESSER expression
    (11) expression -> expression . EQUIVALENCE expression
    (12) expression -> expression . NOTEQUAL expression
    (13) expression -> expression . GREATEREQUAL expression
    (14) expression -> expression . LESSEREQUAL expression
    (16) expression -> expression . AND expression
    (17) expression -> expression . OR expression

    RPAREN          shift and go to state 42
    PLUS            shift and go to state 25
    MINUS           shift and go to state 15
    TIMES           shift and go to state 17
    DIVIDE          shift and go to state 16
    EXPONENT        shift and go to state 23
    FDIVIDE         shift and go to state 13
    GREATER         shift and go to state 12
    LESSER          shift and go to state 19
    EQUIVALENCE     shift and go to state 22
    NOTEQUAL        shift and go to state 20
    GREATEREQUAL    shift and go to state 24
    LESSEREQUAL     shift and go to state 18
    AND             shift and go to state 21
    OR              shift and go to state 14


state 27

    (1) statement -> NAME EQUALS expression .
    (3) expression -> expression . PLUS expression
    (4) expression -> expression . MINUS expression
    (5) expression -> expression . TIMES expression
    (6) expression -> expression . DIVIDE expression
    (7) expression -> expression . EXPONENT expression
    (8) expression -> expression . FDIVIDE expression
    (9) expression -> expression . GREATER expression
    (10) expression -> expression . LESSER expression
    (11) expression -> expression . EQUIVALENCE expression
    (12) expression -> expression . NOTEQUAL expression
    (13) expression -> expression . GREATEREQUAL expression
    (14) expression -> expression . LESSEREQUAL expression
    (16) expression -> expression . AND expression
    (17) expression -> expression . OR expression

    $end            reduce using rule 1 (statement -> NAME EQUALS expression .)
    PLUS            shift and go to state 25
    MINUS           shift and go to state 15
    TIMES           shift and go to state 17
    DIVIDE          shift and go to state 16
    EXPONENT        shift and go to state 23
    FDIVIDE         shift and go to state 13
    GREATER         shift and go to state 12
    LESSER          shift and go to state 19
    EQUIVALENCE     shift and go to state 22
    NOTEQUAL        shift and go to state 20
    GREATEREQUAL    shift and go to state 24
    LESSEREQUAL     shift and go to state 18
    AND             shift and go to state 21
    OR              shift and go to state 14


state 28

    (9) expression -> expression GREATER expression .
    (3) expression -> expression . PLUS expression
    (4) expression -> expression . MINUS expression
    (5) expression -> expression . TIMES expression
    (6) expression -> expression . DIVIDE expression
    (7) expression -> expression . EXPONENT expression
    (8) expression -> expression . FDIVIDE expression
    (9) expression -> expression . GREATER expression
    (10) expression -> expression . LESSER expression
    (11) expression -> expression . EQUIVALENCE expression
    (12) expression -> expression . NOTEQUAL expression
    (13) expression -> expression . GREATEREQUAL expression
    (14) expression -> expression . LESSEREQUAL expression
    (16) expression -> expression . AND expression
    (17) expression -> expression . OR expression

    PLUS            reduce using rule 9 (expression -> expression GREATER expression .)
    MINUS           reduce using rule 9 (expression -> expression GREATER expression .)
    TIMES           reduce using rule 9 (expression -> expression GREATER expression .)
    DIVIDE          reduce using rule 9 (expression -> expression GREATER expression .)
    EXPONENT        reduce using rule 9 (expression -> expression GREATER expression .)
    FDIVIDE         reduce using rule 9 (expression -> expression GREATER expression .)
    GREATER         reduce using rule 9 (expression -> expression GREATER expression .)
    LESSER          reduce using rule 9 (expression -> expression GREATER expression .)
    EQUIVALENCE     reduce using rule 9 (expression -> expression GREATER expression .)
    NOTEQUAL        reduce using rule 9 (expression -> expression GREATER expression .)
    GREATEREQUAL    reduce using rule 9 (expression -> expression GREATER expression .)
    LESSEREQUAL     reduce using rule 9 (expression -> expression GREATER expression .)
    $end            reduce using rule 9 (expression -> expression GREATER expression .)
    RPAREN          reduce using rule 9 (expression -> expression GREATER expression .)
    AND             shift and go to state 21
    OR              shift and go to state 14

  ! AND             [ reduce using rule 9 (expression -> expression GREATER expression .) ]
  ! OR              [ reduce using rule 9 (expression -> expression GREATER expression .) ]
  ! PLUS            [ shift and go to state 25 ]
  ! MINUS           [ shift and go to state 15 ]
  ! TIMES           [ shift and go to state 17 ]
  ! DIVIDE          [ shift and go to state 16 ]
  ! EXPONENT        [ shift and go to state 23 ]
  ! FDIVIDE         [ shift and go to state 13 ]
  ! GREATER         [ shift and go to state 12 ]
  ! LESSER          [ shift and go to state 19 ]
  ! EQUIVALENCE     [ shift and go to state 22 ]
  ! NOTEQUAL        [ shift and go to state 20 ]
  ! GREATEREQUAL    [ shift and go to state 24 ]
  ! LESSEREQUAL     [ shift and go to state 18 ]


state 29

    (8) expression -> expression FDIVIDE expression .
    (3) expression -> expression . PLUS expression
    (4) expression -> expression . MINUS expression
    (5) expression -> expression . TIMES expression
    (6) expression -> expression . DIVIDE expression
    (7) expression -> expression . EXPONENT expression
    (8) expression -> expression . FDIVIDE expression
    (9) expression -> expression . GREATER expression
    (10) expression -> expression . LESSER expression
    (11) expression -> expression . EQUIVALENCE expression
    (12) expression -> expression . NOTEQUAL expression
    (13) expression -> expression . GREATEREQUAL expression
    (14) expression -> expression . LESSEREQUAL expression
    (16) expression -> expression . AND expression
    (17) expression -> expression . OR expression

    PLUS            reduce using rule 8 (expression -> expression FDIVIDE expression .)
    MINUS           reduce using rule 8 (expression -> expression FDIVIDE expression .)
    TIMES           reduce using rule 8 (expression -> expression FDIVIDE expression .)
    DIVIDE          reduce using rule 8 (expression -> expression FDIVIDE expression .)
    EXPONENT        reduce using rule 8 (expression -> expression FDIVIDE expression .)
    FDIVIDE         reduce using rule 8 (expression -> expression FDIVIDE expression .)
    $end            reduce using rule 8 (expression -> expression FDIVIDE expression .)
    RPAREN          reduce using rule 8 (expression -> expression FDIVIDE expression .)
    GREATER         shift and go to state 12
    LESSER          shift and go to state 19
    EQUIVALENCE     shift and go to state 22
    NOTEQUAL        shift and go to state 20
    GREATEREQUAL    shift and go to state 24
    LESSEREQUAL     shift and go to state 18
    AND             shift and go to state 21
    OR              shift and go to state 14

  ! GREATER         [ reduce using rule 8 (expression -> expression FDIVIDE expression .) ]
  ! LESSER          [ reduce using rule 8 (expression -> expression FDIVIDE expression .) ]
  ! EQUIVALENCE     [ reduce using rule 8 (expression -> expression FDIVIDE expression .) ]
  ! NOTEQUAL        [ reduce using rule 8 (expression -> expression FDIVIDE expression .) ]
  ! GREATEREQUAL    [ reduce using rule 8 (expression -> expression FDIVIDE expression .) ]
  ! LESSEREQUAL     [ reduce using rule 8 (expression -> expression FDIVIDE expression .) ]
  ! AND             [ reduce using rule 8 (expression -> expression FDIVIDE expression .) ]
  ! OR              [ reduce using rule 8 (expression -> expression FDIVIDE expression .) ]
  ! PLUS            [ shift and go to state 25 ]
  ! MINUS           [ shift and go to state 15 ]
  ! TIMES           [ shift and go to state 17 ]
  ! DIVIDE          [ shift and go to state 16 ]
  ! EXPONENT        [ shift and go to state 23 ]
  ! FDIVIDE         [ shift and go to state 13 ]


state 30

    (17) expression -> expression OR expression .
    (3) expression -> expression . PLUS expression
    (4) expression -> expression . MINUS expression
    (5) expression -> expression . TIMES expression
    (6) expression -> expression . DIVIDE expression
    (7) expression -> expression . EXPONENT expression
    (8) expression -> expression . FDIVIDE expression
    (9) expression -> expression . GREATER expression
    (10) expression -> expression . LESSER expression
    (11) expression -> expression . EQUIVALENCE expression
    (12) expression -> expression . NOTEQUAL expression
    (13) expression -> expression . GREATEREQUAL expression
    (14) expression -> expression . LESSEREQUAL expression
    (16) expression -> expression . AND expression
    (17) expression -> expression . OR expression

    PLUS            reduce using rule 17 (expression -> expression OR expression .)
    MINUS           reduce using rule 17 (expression -> expression OR expression .)
    TIMES           reduce using rule 17 (expression -> expression OR expression .)
    DIVIDE          reduce using rule 17 (expression -> expression OR expression .)
    EXPONENT        reduce using rule 17 (expression -> expression OR expression .)
    FDIVIDE         reduce using rule 17 (expression -> expression OR expression .)
    GREATER         reduce using rule 17 (expression -> expression OR expression .)
    LESSER          reduce using rule 17 (expression -> expression OR expression .)
    EQUIVALENCE     reduce using rule 17 (expression -> expression OR expression .)
    NOTEQUAL        reduce using rule 17 (expression -> expression OR expression .)
    GREATEREQUAL    reduce using rule 17 (expression -> expression OR expression .)
    LESSEREQUAL     reduce using rule 17 (expression -> expression OR expression .)
    AND             reduce using rule 17 (expression -> expression OR expression .)
    OR              reduce using rule 17 (expression -> expression OR expression .)
    $end            reduce using rule 17 (expression -> expression OR expression .)
    RPAREN          reduce using rule 17 (expression -> expression OR expression .)

  ! PLUS            [ shift and go to state 25 ]
  ! MINUS           [ shift and go to state 15 ]
  ! TIMES           [ shift and go to state 17 ]
  ! DIVIDE          [ shift and go to state 16 ]
  ! EXPONENT        [ shift and go to state 23 ]
  ! FDIVIDE         [ shift and go to state 13 ]
  ! GREATER         [ shift and go to state 12 ]
  ! LESSER          [ shift and go to state 19 ]
  ! EQUIVALENCE     [ shift and go to state 22 ]
  ! NOTEQUAL        [ shift and go to state 20 ]
  ! GREATEREQUAL    [ shift and go to state 24 ]
  ! LESSEREQUAL     [ shift and go to state 18 ]
  ! AND             [ shift and go to state 21 ]
  ! OR              [ shift and go to state 14 ]


state 31

    (4) expression -> expression MINUS expression .
    (3) expression -> expression . PLUS expression
    (4) expression -> expression . MINUS expression
    (5) expression -> expression . TIMES expression
    (6) expression -> expression . DIVIDE expression
    (7) expression -> expression . EXPONENT expression
    (8) expression -> expression . FDIVIDE expression
    (9) expression -> expression . GREATER expression
    (10) expression -> expression . LESSER expression
    (11) expression -> expression . EQUIVALENCE expression
    (12) expression -> expression . NOTEQUAL expression
    (13) expression -> expression . GREATEREQUAL expression
    (14) expression -> expression . LESSEREQUAL expression
    (16) expression -> expression . AND expression
    (17) expression -> expression . OR expression

    PLUS            reduce using rule 4 (expression -> expression MINUS expression .)
    MINUS           reduce using rule 4 (expression -> expression MINUS expression .)
    $end            reduce using rule 4 (expression -> expression MINUS expression .)
    RPAREN          reduce using rule 4 (expression -> expression MINUS expression .)
    TIMES           shift and go to state 17
    DIVIDE          shift and go to state 16
    EXPONENT        shift and go to state 23
    FDIVIDE         shift and go to state 13
    GREATER         shift and go to state 12
    LESSER          shift and go to state 19
    EQUIVALENCE     shift and go to state 22
    NOTEQUAL        shift and go to state 20
    GREATEREQUAL    shift and go to state 24
    LESSEREQUAL     shift and go to state 18
    AND             shift and go to state 21
    OR              shift and go to state 14

  ! TIMES           [ reduce using rule 4 (expression -> expression MINUS expression .) ]
  ! DIVIDE          [ reduce using rule 4 (expression -> expression MINUS expression .) ]
  ! EXPONENT        [ reduce using rule 4 (expression -> expression MINUS expression .) ]
  ! FDIVIDE         [ reduce using rule 4 (expression -> expression MINUS expression .) ]
  ! GREATER         [ reduce using rule 4 (expression -> expression MINUS expression .) ]
  ! LESSER          [ reduce using rule 4 (expression -> expression MINUS expression .) ]
  ! EQUIVALENCE     [ reduce using rule 4 (expression -> expression MINUS expression .) ]
  ! NOTEQUAL        [ reduce using rule 4 (expression -> expression MINUS expression .) ]
  ! GREATEREQUAL    [ reduce using rule 4 (expression -> expression MINUS expression .) ]
  ! LESSEREQUAL     [ reduce using rule 4 (expression -> expression MINUS expression .) ]
  ! AND             [ reduce using rule 4 (expression -> expression MINUS expression .) ]
  ! OR              [ reduce using rule 4 (expression -> expression MINUS expression .) ]
  ! PLUS            [ shift and go to state 25 ]
  ! MINUS           [ shift and go to state 15 ]


state 32

    (6) expression -> expression DIVIDE expression .
    (3) expression -> expression . PLUS expression
    (4) expression -> expression . MINUS expression
    (5) expression -> expression . TIMES expression
    (6) expression -> expression . DIVIDE expression
    (7) expression -> expression . EXPONENT expression
    (8) expression -> expression . FDIVIDE expression
    (9) expression -> expression . GREATER expression
    (10) expression -> expression . LESSER expression
    (11) expression -> expression . EQUIVALENCE expression
    (12) expression -> expression . NOTEQUAL expression
    (13) expression -> expression . GREATEREQUAL expression
    (14) expression -> expression . LESSEREQUAL expression
    (16) expression -> expression . AND expression
    (17) expression -> expression . OR expression

    PLUS            reduce using rule 6 (expression -> expression DIVIDE expression .)
    MINUS           reduce using rule 6 (expression -> expression DIVIDE expression .)
    TIMES           reduce using rule 6 (expression -> expression DIVIDE expression .)
    DIVIDE          reduce using rule 6 (expression -> expression DIVIDE expression .)
    $end            reduce using rule 6 (expression -> expression DIVIDE expression .)
    RPAREN          reduce using rule 6 (expression -> expression DIVIDE expression .)
    EXPONENT        shift and go to state 23
    FDIVIDE         shift and go to state 13
    GREATER         shift and go to state 12
    LESSER          shift and go to state 19
    EQUIVALENCE     shift and go to state 22
    NOTEQUAL        shift and go to state 20
    GREATEREQUAL    shift and go to state 24
    LESSEREQUAL     shift and go to state 18
    AND             shift and go to state 21
    OR              shift and go to state 14

  ! EXPONENT        [ reduce using rule 6 (expression -> expression DIVIDE expression .) ]
  ! FDIVIDE         [ reduce using rule 6 (expression -> expression DIVIDE expression .) ]
  ! GREATER         [ reduce using rule 6 (expression -> expression DIVIDE expression .) ]
  ! LESSER          [ reduce using rule 6 (expression -> expression DIVIDE expression .) ]
  ! EQUIVALENCE     [ reduce using rule 6 (expression -> expression DIVIDE expression .) ]
  ! NOTEQUAL        [ reduce using rule 6 (expression -> expression DIVIDE expression .) ]
  ! GREATEREQUAL    [ reduce using rule 6 (expression -> expression DIVIDE expression .) ]
  ! LESSEREQUAL     [ reduce using rule 6 (expression -> expression DIVIDE expression .) ]
  ! AND             [ reduce using rule 6 (expression -> expression DIVIDE expression .) ]
  ! OR              [ reduce using rule 6 (expression -> expression DIVIDE expression .) ]
  ! PLUS            [ shift and go to state 25 ]
  ! MINUS           [ shift and go to state 15 ]
  ! TIMES           [ shift and go to state 17 ]
  ! DIVIDE          [ shift and go to state 16 ]


state 33

    (5) expression -> expression TIMES expression .
    (3) expression -> expression . PLUS expression
    (4) expression -> expression . MINUS expression
    (5) expression -> expression . TIMES expression
    (6) expression -> expression . DIVIDE expression
    (7) expression -> expression . EXPONENT expression
    (8) expression -> expression . FDIVIDE expression
    (9) expression -> expression . GREATER expression
    (10) expression -> expression . LESSER expression
    (11) expression -> expression . EQUIVALENCE expression
    (12) expression -> expression . NOTEQUAL expression
    (13) expression -> expression . GREATEREQUAL expression
    (14) expression -> expression . LESSEREQUAL expression
    (16) expression -> expression . AND expression
    (17) expression -> expression . OR expression

    PLUS            reduce using rule 5 (expression -> expression TIMES expression .)
    MINUS           reduce using rule 5 (expression -> expression TIMES expression .)
    TIMES           reduce using rule 5 (expression -> expression TIMES expression .)
    DIVIDE          reduce using rule 5 (expression -> expression TIMES expression .)
    $end            reduce using rule 5 (expression -> expression TIMES expression .)
    RPAREN          reduce using rule 5 (expression -> expression TIMES expression .)
    EXPONENT        shift and go to state 23
    FDIVIDE         shift and go to state 13
    GREATER         shift and go to state 12
    LESSER          shift and go to state 19
    EQUIVALENCE     shift and go to state 22
    NOTEQUAL        shift and go to state 20
    GREATEREQUAL    shift and go to state 24
    LESSEREQUAL     shift and go to state 18
    AND             shift and go to state 21
    OR              shift and go to state 14

  ! EXPONENT        [ reduce using rule 5 (expression -> expression TIMES expression .) ]
  ! FDIVIDE         [ reduce using rule 5 (expression -> expression TIMES expression .) ]
  ! GREATER         [ reduce using rule 5 (expression -> expression TIMES expression .) ]
  ! LESSER          [ reduce using rule 5 (expression -> expression TIMES expression .) ]
  ! EQUIVALENCE     [ reduce using rule 5 (expression -> expression TIMES expression .) ]
  ! NOTEQUAL        [ reduce using rule 5 (expression -> expression TIMES expression .) ]
  ! GREATEREQUAL    [ reduce using rule 5 (expression -> expression TIMES expression .) ]
  ! LESSEREQUAL     [ reduce using rule 5 (expression -> expression TIMES expression .) ]
  ! AND             [ reduce using rule 5 (expression -> expression TIMES expression .) ]
  ! OR              [ reduce using rule 5 (expression -> expression TIMES expression .) ]
  ! PLUS            [ shift and go to state 25 ]
  ! MINUS           [ shift and go to state 15 ]
  ! TIMES           [ shift and go to state 17 ]
  ! DIVIDE          [ shift and go to state 16 ]


state 34

    (14) expression -> expression LESSEREQUAL expression .
    (3) expression -> expression . PLUS expression
    (4) expression -> expression . MINUS expression
    (5) expression -> expression . TIMES expression
    (6) expression -> expression . DIVIDE expression
    (7) expression -> expression . EXPONENT expression
    (8) expression -> expression . FDIVIDE expression
    (9) expression -> expression . GREATER expression
    (10) expression -> expression . LESSER expression
    (11) expression -> expression . EQUIVALENCE expression
    (12) expression -> expression . NOTEQUAL expression
    (13) expression -> expression . GREATEREQUAL expression
    (14) expression -> expression . LESSEREQUAL expression
    (16) expression -> expression . AND expression
    (17) expression -> expression . OR expression

    PLUS            reduce using rule 14 (expression -> expression LESSEREQUAL expression .)
    MINUS           reduce using rule 14 (expression -> expression LESSEREQUAL expression .)
    TIMES           reduce using rule 14 (expression -> expression LESSEREQUAL expression .)
    DIVIDE          reduce using rule 14 (expression -> expression LESSEREQUAL expression .)
    EXPONENT        reduce using rule 14 (expression -> expression LESSEREQUAL expression .)
    FDIVIDE         reduce using rule 14 (expression -> expression LESSEREQUAL expression .)
    GREATER         reduce using rule 14 (expression -> expression LESSEREQUAL expression .)
    LESSER          reduce using rule 14 (expression -> expression LESSEREQUAL expression .)
    EQUIVALENCE     reduce using rule 14 (expression -> expression LESSEREQUAL expression .)
    NOTEQUAL        reduce using rule 14 (expression -> expression LESSEREQUAL expression .)
    GREATEREQUAL    reduce using rule 14 (expression -> expression LESSEREQUAL expression .)
    LESSEREQUAL     reduce using rule 14 (expression -> expression LESSEREQUAL expression .)
    $end            reduce using rule 14 (expression -> expression LESSEREQUAL expression .)
    RPAREN          reduce using rule 14 (expression -> expression LESSEREQUAL expression .)
    AND             shift and go to state 21
    OR              shift and go to state 14

  ! AND             [ reduce using rule 14 (expression -> expression LESSEREQUAL expression .) ]
  ! OR              [ reduce using rule 14 (expression -> expression LESSEREQUAL expression .) ]
  ! PLUS            [ shift and go to state 25 ]
  ! MINUS           [ shift and go to state 15 ]
  ! TIMES           [ shift and go to state 17 ]
  ! DIVIDE          [ shift and go to state 16 ]
  ! EXPONENT        [ shift and go to state 23 ]
  ! FDIVIDE         [ shift and go to state 13 ]
  ! GREATER         [ shift and go to state 12 ]
  ! LESSER          [ shift and go to state 19 ]
  ! EQUIVALENCE     [ shift and go to state 22 ]
  ! NOTEQUAL        [ shift and go to state 20 ]
  ! GREATEREQUAL    [ shift and go to state 24 ]
  ! LESSEREQUAL     [ shift and go to state 18 ]


state 35

    (10) expression -> expression LESSER expression .
    (3) expression -> expression . PLUS expression
    (4) expression -> expression . MINUS expression
    (5) expression -> expression . TIMES expression
    (6) expression -> expression . DIVIDE expression
    (7) expression -> expression . EXPONENT expression
    (8) expression -> expression . FDIVIDE expression
    (9) expression -> expression . GREATER expression
    (10) expression -> expression . LESSER expression
    (11) expression -> expression . EQUIVALENCE expression
    (12) expression -> expression . NOTEQUAL expression
    (13) expression -> expression . GREATEREQUAL expression
    (14) expression -> expression . LESSEREQUAL expression
    (16) expression -> expression . AND expression
    (17) expression -> expression . OR expression

    PLUS            reduce using rule 10 (expression -> expression LESSER expression .)
    MINUS           reduce using rule 10 (expression -> expression LESSER expression .)
    TIMES           reduce using rule 10 (expression -> expression LESSER expression .)
    DIVIDE          reduce using rule 10 (expression -> expression LESSER expression .)
    EXPONENT        reduce using rule 10 (expression -> expression LESSER expression .)
    FDIVIDE         reduce using rule 10 (expression -> expression LESSER expression .)
    GREATER         reduce using rule 10 (expression -> expression LESSER expression .)
    LESSER          reduce using rule 10 (expression -> expression LESSER expression .)
    EQUIVALENCE     reduce using rule 10 (expression -> expression LESSER expression .)
    NOTEQUAL        reduce using rule 10 (expression -> expression LESSER expression .)
    GREATEREQUAL    reduce using rule 10 (expression -> expression LESSER expression .)
    LESSEREQUAL     reduce using rule 10 (expression -> expression LESSER expression .)
    $end            reduce using rule 10 (expression -> expression LESSER expression .)
    RPAREN          reduce using rule 10 (expression -> expression LESSER expression .)
    AND             shift and go to state 21
    OR              shift and go to state 14

  ! AND             [ reduce using rule 10 (expression -> expression LESSER expression .) ]
  ! OR              [ reduce using rule 10 (expression -> expression LESSER expression .) ]
  ! PLUS            [ shift and go to state 25 ]
  ! MINUS           [ shift and go to state 15 ]
  ! TIMES           [ shift and go to state 17 ]
  ! DIVIDE          [ shift and go to state 16 ]
  ! EXPONENT        [ shift and go to state 23 ]
  ! FDIVIDE         [ shift and go to state 13 ]
  ! GREATER         [ shift and go to state 12 ]
  ! LESSER          [ shift and go to state 19 ]
  ! EQUIVALENCE     [ shift and go to state 22 ]
  ! NOTEQUAL        [ shift and go to state 20 ]
  ! GREATEREQUAL    [ shift and go to state 24 ]
  ! LESSEREQUAL     [ shift and go to state 18 ]


state 36

    (12) expression -> expression NOTEQUAL expression .
    (3) expression -> expression . PLUS expression
    (4) expression -> expression . MINUS expression
    (5) expression -> expression . TIMES expression
    (6) expression -> expression . DIVIDE expression
    (7) expression -> expression . EXPONENT expression
    (8) expression -> expression . FDIVIDE expression
    (9) expression -> expression . GREATER expression
    (10) expression -> expression . LESSER expression
    (11) expression -> expression . EQUIVALENCE expression
    (12) expression -> expression . NOTEQUAL expression
    (13) expression -> expression . GREATEREQUAL expression
    (14) expression -> expression . LESSEREQUAL expression
    (16) expression -> expression . AND expression
    (17) expression -> expression . OR expression

    PLUS            reduce using rule 12 (expression -> expression NOTEQUAL expression .)
    MINUS           reduce using rule 12 (expression -> expression NOTEQUAL expression .)
    TIMES           reduce using rule 12 (expression -> expression NOTEQUAL expression .)
    DIVIDE          reduce using rule 12 (expression -> expression NOTEQUAL expression .)
    EXPONENT        reduce using rule 12 (expression -> expression NOTEQUAL expression .)
    FDIVIDE         reduce using rule 12 (expression -> expression NOTEQUAL expression .)
    GREATER         reduce using rule 12 (expression -> expression NOTEQUAL expression .)
    LESSER          reduce using rule 12 (expression -> expression NOTEQUAL expression .)
    EQUIVALENCE     reduce using rule 12 (expression -> expression NOTEQUAL expression .)
    NOTEQUAL        reduce using rule 12 (expression -> expression NOTEQUAL expression .)
    GREATEREQUAL    reduce using rule 12 (expression -> expression NOTEQUAL expression .)
    LESSEREQUAL     reduce using rule 12 (expression -> expression NOTEQUAL expression .)
    $end            reduce using rule 12 (expression -> expression NOTEQUAL expression .)
    RPAREN          reduce using rule 12 (expression -> expression NOTEQUAL expression .)
    AND             shift and go to state 21
    OR              shift and go to state 14

  ! AND             [ reduce using rule 12 (expression -> expression NOTEQUAL expression .) ]
  ! OR              [ reduce using rule 12 (expression -> expression NOTEQUAL expression .) ]
  ! PLUS            [ shift and go to state 25 ]
  ! MINUS           [ shift and go to state 15 ]
  ! TIMES           [ shift and go to state 17 ]
  ! DIVIDE          [ shift and go to state 16 ]
  ! EXPONENT        [ shift and go to state 23 ]
  ! FDIVIDE         [ shift and go to state 13 ]
  ! GREATER         [ shift and go to state 12 ]
  ! LESSER          [ shift and go to state 19 ]
  ! EQUIVALENCE     [ shift and go to state 22 ]
  ! NOTEQUAL        [ shift and go to state 20 ]
  ! GREATEREQUAL    [ shift and go to state 24 ]
  ! LESSEREQUAL     [ shift and go to state 18 ]


state 37

    (16) expression -> expression AND expression .
    (3) expression -> expression . PLUS expression
    (4) expression -> expression . MINUS expression
    (5) expression -> expression . TIMES expression
    (6) expression -> expression . DIVIDE expression
    (7) expression -> expression . EXPONENT expression
    (8) expression -> expression . FDIVIDE expression
    (9) expression -> expression . GREATER expression
    (10) expression -> expression . LESSER expression
    (11) expression -> expression . EQUIVALENCE expression
    (12) expression -> expression . NOTEQUAL expression
    (13) expression -> expression . GREATEREQUAL expression
    (14) expression -> expression . LESSEREQUAL expression
    (16) expression -> expression . AND expression
    (17) expression -> expression . OR expression

    PLUS            reduce using rule 16 (expression -> expression AND expression .)
    MINUS           reduce using rule 16 (expression -> expression AND expression .)
    TIMES           reduce using rule 16 (expression -> expression AND expression .)
    DIVIDE          reduce using rule 16 (expression -> expression AND expression .)
    EXPONENT        reduce using rule 16 (expression -> expression AND expression .)
    FDIVIDE         reduce using rule 16 (expression -> expression AND expression .)
    GREATER         reduce using rule 16 (expression -> expression AND expression .)
    LESSER          reduce using rule 16 (expression -> expression AND expression .)
    EQUIVALENCE     reduce using rule 16 (expression -> expression AND expression .)
    NOTEQUAL        reduce using rule 16 (expression -> expression AND expression .)
    GREATEREQUAL    reduce using rule 16 (expression -> expression AND expression .)
    LESSEREQUAL     reduce using rule 16 (expression -> expression AND expression .)
    AND             reduce using rule 16 (expression -> expression AND expression .)
    OR              reduce using rule 16 (expression -> expression AND expression .)
    $end            reduce using rule 16 (expression -> expression AND expression .)
    RPAREN          reduce using rule 16 (expression -> expression AND expression .)

  ! PLUS            [ shift and go to state 25 ]
  ! MINUS           [ shift and go to state 15 ]
  ! TIMES           [ shift and go to state 17 ]
  ! DIVIDE          [ shift and go to state 16 ]
  ! EXPONENT        [ shift and go to state 23 ]
  ! FDIVIDE         [ shift and go to state 13 ]
  ! GREATER         [ shift and go to state 12 ]
  ! LESSER          [ shift and go to state 19 ]
  ! EQUIVALENCE     [ shift and go to state 22 ]
  ! NOTEQUAL        [ shift and go to state 20 ]
  ! GREATEREQUAL    [ shift and go to state 24 ]
  ! LESSEREQUAL     [ shift and go to state 18 ]
  ! AND             [ shift and go to state 21 ]
  ! OR              [ shift and go to state 14 ]


state 38

    (11) expression -> expression EQUIVALENCE expression .
    (3) expression -> expression . PLUS expression
    (4) expression -> expression . MINUS expression
    (5) expression -> expression . TIMES expression
    (6) expression -> expression . DIVIDE expression
    (7) expression -> expression . EXPONENT expression
    (8) expression -> expression . FDIVIDE expression
    (9) expression -> expression . GREATER expression
    (10) expression -> expression . LESSER expression
    (11) expression -> expression . EQUIVALENCE expression
    (12) expression -> expression . NOTEQUAL expression
    (13) expression -> expression . GREATEREQUAL expression
    (14) expression -> expression . LESSEREQUAL expression
    (16) expression -> expression . AND expression
    (17) expression -> expression . OR expression

    PLUS            reduce using rule 11 (expression -> expression EQUIVALENCE expression .)
    MINUS           reduce using rule 11 (expression -> expression EQUIVALENCE expression .)
    TIMES           reduce using rule 11 (expression -> expression EQUIVALENCE expression .)
    DIVIDE          reduce using rule 11 (expression -> expression EQUIVALENCE expression .)
    EXPONENT        reduce using rule 11 (expression -> expression EQUIVALENCE expression .)
    FDIVIDE         reduce using rule 11 (expression -> expression EQUIVALENCE expression .)
    GREATER         reduce using rule 11 (expression -> expression EQUIVALENCE expression .)
    LESSER          reduce using rule 11 (expression -> expression EQUIVALENCE expression .)
    EQUIVALENCE     reduce using rule 11 (expression -> expression EQUIVALENCE expression .)
    NOTEQUAL        reduce using rule 11 (expression -> expression EQUIVALENCE expression .)
    GREATEREQUAL    reduce using rule 11 (expression -> expression EQUIVALENCE expression .)
    LESSEREQUAL     reduce using rule 11 (expression -> expression EQUIVALENCE expression .)
    $end            reduce using rule 11 (expression -> expression EQUIVALENCE expression .)
    RPAREN          reduce using rule 11 (expression -> expression EQUIVALENCE expression .)
    AND             shift and go to state 21
    OR              shift and go to state 14

  ! AND             [ reduce using rule 11 (expression -> expression EQUIVALENCE expression .) ]
  ! OR              [ reduce using rule 11 (expression -> expression EQUIVALENCE expression .) ]
  ! PLUS            [ shift and go to state 25 ]
  ! MINUS           [ shift and go to state 15 ]
  ! TIMES           [ shift and go to state 17 ]
  ! DIVIDE          [ shift and go to state 16 ]
  ! EXPONENT        [ shift and go to state 23 ]
  ! FDIVIDE         [ shift and go to state 13 ]
  ! GREATER         [ shift and go to state 12 ]
  ! LESSER          [ shift and go to state 19 ]
  ! EQUIVALENCE     [ shift and go to state 22 ]
  ! NOTEQUAL        [ shift and go to state 20 ]
  ! GREATEREQUAL    [ shift and go to state 24 ]
  ! LESSEREQUAL     [ shift and go to state 18 ]


state 39

    (7) expression -> expression EXPONENT expression .
    (3) expression -> expression . PLUS expression
    (4) expression -> expression . MINUS expression
    (5) expression -> expression . TIMES expression
    (6) expression -> expression . DIVIDE expression
    (7) expression -> expression . EXPONENT expression
    (8) expression -> expression . FDIVIDE expression
    (9) expression -> expression . GREATER expression
    (10) expression -> expression . LESSER expression
    (11) expression -> expression . EQUIVALENCE expression
    (12) expression -> expression . NOTEQUAL expression
    (13) expression -> expression . GREATEREQUAL expression
    (14) expression -> expression . LESSEREQUAL expression
    (16) expression -> expression . AND expression
    (17) expression -> expression . OR expression

    PLUS            reduce using rule 7 (expression -> expression EXPONENT expression .)
    MINUS           reduce using rule 7 (expression -> expression EXPONENT expression .)
    TIMES           reduce using rule 7 (expression -> expression EXPONENT expression .)
    DIVIDE          reduce using rule 7 (expression -> expression EXPONENT expression .)
    EXPONENT        reduce using rule 7 (expression -> expression EXPONENT expression .)
    FDIVIDE         reduce using rule 7 (expression -> expression EXPONENT expression .)
    $end            reduce using rule 7 (expression -> expression EXPONENT expression .)
    RPAREN          reduce using rule 7 (expression -> expression EXPONENT expression .)
    GREATER         shift and go to state 12
    LESSER          shift and go to state 19
    EQUIVALENCE     shift and go to state 22
    NOTEQUAL        shift and go to state 20
    GREATEREQUAL    shift and go to state 24
    LESSEREQUAL     shift and go to state 18
    AND             shift and go to state 21
    OR              shift and go to state 14

  ! GREATER         [ reduce using rule 7 (expression -> expression EXPONENT expression .) ]
  ! LESSER          [ reduce using rule 7 (expression -> expression EXPONENT expression .) ]
  ! EQUIVALENCE     [ reduce using rule 7 (expression -> expression EXPONENT expression .) ]
  ! NOTEQUAL        [ reduce using rule 7 (expression -> expression EXPONENT expression .) ]
  ! GREATEREQUAL    [ reduce using rule 7 (expression -> expression EXPONENT expression .) ]
  ! LESSEREQUAL     [ reduce using rule 7 (expression -> expression EXPONENT expression .) ]
  ! AND             [ reduce using rule 7 (expression -> expression EXPONENT expression .) ]
  ! OR              [ reduce using rule 7 (expression -> expression EXPONENT expression .) ]
  ! PLUS            [ shift and go to state 25 ]
  ! MINUS           [ shift and go to state 15 ]
  ! TIMES           [ shift and go to state 17 ]
  ! DIVIDE          [ shift and go to state 16 ]
  ! EXPONENT        [ shift and go to state 23 ]
  ! FDIVIDE         [ shift and go to state 13 ]


state 40

    (13) expression -> expression GREATEREQUAL expression .
    (3) expression -> expression . PLUS expression
    (4) expression -> expression . MINUS expression
    (5) expression -> expression . TIMES expression
    (6) expression -> expression . DIVIDE expression
    (7) expression -> expression . EXPONENT expression
    (8) expression -> expression . FDIVIDE expression
    (9) expression -> expression . GREATER expression
    (10) expression -> expression . LESSER expression
    (11) expression -> expression . EQUIVALENCE expression
    (12) expression -> expression . NOTEQUAL expression
    (13) expression -> expression . GREATEREQUAL expression
    (14) expression -> expression . LESSEREQUAL expression
    (16) expression -> expression . AND expression
    (17) expression -> expression . OR expression

    PLUS            reduce using rule 13 (expression -> expression GREATEREQUAL expression .)
    MINUS           reduce using rule 13 (expression -> expression GREATEREQUAL expression .)
    TIMES           reduce using rule 13 (expression -> expression GREATEREQUAL expression .)
    DIVIDE          reduce using rule 13 (expression -> expression GREATEREQUAL expression .)
    EXPONENT        reduce using rule 13 (expression -> expression GREATEREQUAL expression .)
    FDIVIDE         reduce using rule 13 (expression -> expression GREATEREQUAL expression .)
    GREATER         reduce using rule 13 (expression -> expression GREATEREQUAL expression .)
    LESSER          reduce using rule 13 (expression -> expression GREATEREQUAL expression .)
    EQUIVALENCE     reduce using rule 13 (expression -> expression GREATEREQUAL expression .)
    NOTEQUAL        reduce using rule 13 (expression -> expression GREATEREQUAL expression .)
    GREATEREQUAL    reduce using rule 13 (expression -> expression GREATEREQUAL expression .)
    LESSEREQUAL     reduce using rule 13 (expression -> expression GREATEREQUAL expression .)
    $end            reduce using rule 13 (expression -> expression GREATEREQUAL expression .)
    RPAREN          reduce using rule 13 (expression -> expression GREATEREQUAL expression .)
    AND             shift and go to state 21
    OR              shift and go to state 14

  ! AND             [ reduce using rule 13 (expression -> expression GREATEREQUAL expression .) ]
  ! OR              [ reduce using rule 13 (expression -> expression GREATEREQUAL expression .) ]
  ! PLUS            [ shift and go to state 25 ]
  ! MINUS           [ shift and go to state 15 ]
  ! TIMES           [ shift and go to state 17 ]
  ! DIVIDE          [ shift and go to state 16 ]
  ! EXPONENT        [ shift and go to state 23 ]
  ! FDIVIDE         [ shift and go to state 13 ]
  ! GREATER         [ shift and go to state 12 ]
  ! LESSER          [ shift and go to state 19 ]
  ! EQUIVALENCE     [ shift and go to state 22 ]
  ! NOTEQUAL        [ shift and go to state 20 ]
  ! GREATEREQUAL    [ shift and go to state 24 ]
  ! LESSEREQUAL     [ shift and go to state 18 ]


state 41

    (3) expression -> expression PLUS expression .
    (3) expression -> expression . PLUS expression
    (4) expression -> expression . MINUS expression
    (5) expression -> expression . TIMES expression
    (6) expression -> expression . DIVIDE expression
    (7) expression -> expression . EXPONENT expression
    (8) expression -> expression . FDIVIDE expression
    (9) expression -> expression . GREATER expression
    (10) expression -> expression . LESSER expression
    (11) expression -> expression . EQUIVALENCE expression
    (12) expression -> expression . NOTEQUAL expression
    (13) expression -> expression . GREATEREQUAL expression
    (14) expression -> expression . LESSEREQUAL expression
    (16) expression -> expression . AND expression
    (17) expression -> expression . OR expression

    PLUS            reduce using rule 3 (expression -> expression PLUS expression .)
    MINUS           reduce using rule 3 (expression -> expression PLUS expression .)
    $end            reduce using rule 3 (expression -> expression PLUS expression .)
    RPAREN          reduce using rule 3 (expression -> expression PLUS expression .)
    TIMES           shift and go to state 17
    DIVIDE          shift and go to state 16
    EXPONENT        shift and go to state 23
    FDIVIDE         shift and go to state 13
    GREATER         shift and go to state 12
    LESSER          shift and go to state 19
    EQUIVALENCE     shift and go to state 22
    NOTEQUAL        shift and go to state 20
    GREATEREQUAL    shift and go to state 24
    LESSEREQUAL     shift and go to state 18
    AND             shift and go to state 21
    OR              shift and go to state 14

  ! TIMES           [ reduce using rule 3 (expression -> expression PLUS expression .) ]
  ! DIVIDE          [ reduce using rule 3 (expression -> expression PLUS expression .) ]
  ! EXPONENT        [ reduce using rule 3 (expression -> expression PLUS expression .) ]
  ! FDIVIDE         [ reduce using rule 3 (expression -> expression PLUS expression .) ]
  ! GREATER         [ reduce using rule 3 (expression -> expression PLUS expression .) ]
  ! LESSER          [ reduce using rule 3 (expression -> expression PLUS expression .) ]
  ! EQUIVALENCE     [ reduce using rule 3 (expression -> expression PLUS expression .) ]
  ! NOTEQUAL        [ reduce using rule 3 (expression -> expression PLUS expression .) ]
  ! GREATEREQUAL    [ reduce using rule 3 (expression -> expression PLUS expression .) ]
  ! LESSEREQUAL     [ reduce using rule 3 (expression -> expression PLUS expression .) ]
  ! AND             [ reduce using rule 3 (expression -> expression PLUS expression .) ]
  ! OR              [ reduce using rule 3 (expression -> expression PLUS expression .) ]
  ! PLUS            [ shift and go to state 25 ]
  ! MINUS           [ shift and go to state 15 ]


state 42

    (19) expression -> LPAREN expression RPAREN .

    PLUS            reduce using rule 19 (expression -> LPAREN expression RPAREN .)
    MINUS           reduce using rule 19 (expression -> LPAREN expression RPAREN .)
    TIMES           reduce using rule 19 (expression -> LPAREN expression RPAREN .)
    DIVIDE          reduce using rule 19 (expression -> LPAREN expression RPAREN .)
    EXPONENT        reduce using rule 19 (expression -> LPAREN expression RPAREN .)
    FDIVIDE         reduce using rule 19 (expression -> LPAREN expression RPAREN .)
    GREATER         reduce using rule 19 (expression -> LPAREN expression RPAREN .)
    LESSER          reduce using rule 19 (expression -> LPAREN expression RPAREN .)
    EQUIVALENCE     reduce using rule 19 (expression -> LPAREN expression RPAREN .)
    NOTEQUAL        reduce using rule 19 (expression -> LPAREN expression RPAREN .)
    GREATEREQUAL    reduce using rule 19 (expression -> LPAREN expression RPAREN .)
    LESSEREQUAL     reduce using rule 19 (expression -> LPAREN expression RPAREN .)
    AND             reduce using rule 19 (expression -> LPAREN expression RPAREN .)
    OR              reduce using rule 19 (expression -> LPAREN expression RPAREN .)
    $end            reduce using rule 19 (expression -> LPAREN expression RPAREN .)
    RPAREN          reduce using rule 19 (expression -> LPAREN expression RPAREN .)

